{
  "versions": [
    {
      "version": "3.9.10",
      "git-tree": "44b0685c4ef7bb41cc7f3274effb8566b0b121ba",
      "port-version": 1
    },    
    {
      "version": "3.9.10",
      "git-tree": "eaf504dcc7ed91bfe7f9d960601da9704e292588",
      "port-version": 2
    },    
    {
      "version": "3.9.14",
      "git-tree": "4a6342e355e345dc15b2543c7bda2c8ef9f68241",
      "port-version": 0
    }
  ]
}