{
  "versions": [
    {
      "version": "4.1.1",
      "port-version": 2,
      "git-tree": "5cf9af5c2fce2a3d14e55ffa4cefced902aa094d"
    },
    {
      "version": "4.1.1",
      "port-version": 3,
      "git-tree": "cc721f68f67d39d82e5c7c4eb2358034dd596341"
    },
    {
      "version": "4.1.1",
      "port-version": 4,
      "git-tree": "7e2f0a8e49f8e0dc37c7b0a34a64195835a906ca"
    },
    {
      "version": "4.1.1",
      "port-version": 5,
      "git-tree": "2e2a4c18090c40a8943d874b43b736f6a9a0e291"
    },
    {
      "version": "4.1.1",
      "port-version": 6,
      "git-tree": "a7e5771889d2aeb38b743474680b7453ee5fd26e"
    },
    {
      "version": "4.1.1",
      "port-version": 7,
      "git-tree": "8ca60da90ab90cfa24839c6052043c8db1afb9c1"
    },
    {
      "version": "4.1.1",
      "port-version": 8,
      "git-tree": "2de207d7c3cbd64076a7beef4710daebd7d63538"
    },
    {
      "version": "4.1.1",
      "port-version": 9,
      "git-tree": "193a218169b9447eb971c2118c3092b761a57514"
    },
    {
      "version": "4.2.0",
      "port-version": 0,
      "git-tree": "583d7a358260b71fa2571a100d4ddacd78848ffd"
    },
    {
      "version": "4.2.0",
      "port-version": 1,
      "git-tree": "723f0dad311a8a5d95ae6f35898b3bfaea00be31"
    }
  ]
}